# Blender v2.93.0 OBJ File: 'Andorinha.blend'
# www.blender.org
mtllib Andorinha3.mtl
o Cube.002_Cube.003
v -8.667387 0.752039 -3.355707
v -8.646936 -0.185082 -2.993796
v -8.857178 1.583347 -2.321767
v -8.830145 0.344577 -1.843360
v -7.337105 0.790754 -3.330630
v -7.316654 -0.146367 -2.968719
v -7.507207 1.714385 -2.058744
v -7.480174 0.475615 -1.580338
v -9.107598 0.782594 -0.792172
v -9.128664 1.747939 -1.164983
v -7.958201 1.861553 -0.936935
v -7.937135 0.896208 -0.564124
v -9.514274 1.199088 0.552075
v -9.527496 1.805004 0.318073
v -8.064139 1.947048 0.603187
v -8.050917 1.341132 0.837189
v -8.182193 1.648866 -2.190255
v -8.155159 0.410096 -1.711849
v -8.028210 0.814083 -3.231173
v -8.007759 -0.123039 -2.869262
v -8.543433 1.804746 -1.050959
v -8.522367 0.839401 -0.678148
v -8.795818 1.876026 0.460630
v -8.782596 1.270110 0.694632
v -8.461843 1.732389 1.640968
v -7.986663 1.740226 1.631893
v -7.994619 2.147398 1.566963
v -8.469798 2.139562 1.576038
v -8.201643 2.004805 2.687013
v -7.955945 2.012598 2.705782
v -7.960071 2.223783 2.672106
v -8.205769 2.215990 2.653337
v -9.877445 1.537809 1.387910
v -9.945001 1.899367 1.310426
v -9.587505 2.012659 1.527382
v -9.519949 1.651101 1.604866
v -10.473776 1.767292 2.468679
v -10.503546 1.926620 2.434534
v -10.346006 1.976545 2.530139
v -10.316236 1.817216 2.564285
v -8.610126 0.215252 -3.767335
v -8.580441 -0.573727 -3.034517
v -7.521938 -0.686936 -3.199277
v -7.551621 0.102043 -3.932096
v -8.080873 0.158647 -3.849715
v -8.051190 -0.630331 -3.116897
v -8.472733 -0.244181 -4.267542
v -8.443049 -1.033159 -3.534723
v -7.254998 0.432034 -1.474764
v -7.269267 1.085920 -1.727291
v -7.134872 0.528795 -3.048074
v -7.122500 -0.038143 -2.829126
v -7.839870 0.871290 -0.433732
v -7.852242 1.438228 -0.652680
v -6.645398 0.289409 -1.253352
v -6.665043 1.189643 -1.601018
v -6.665888 0.565649 -3.072924
v -6.652141 -0.064295 -2.829643
v -6.900084 0.846634 -0.612023
v -6.908377 1.226599 -0.758764
v -6.100718 0.529382 -0.662751
v -6.120364 1.429616 -1.010416
v -6.004112 0.833666 -2.416324
v -5.990365 0.203722 -2.173043
v -6.602672 1.074250 -0.039448
v -6.608685 1.349810 -0.145868
v -5.852429 0.793646 0.533207
v -5.807792 1.629014 0.239717
v -5.475428 1.110942 -1.043679
v -5.506001 0.538791 -0.842665
v -6.044584 1.262369 0.926698
v -5.951659 1.618041 0.843059
v -5.296851 1.168023 2.520500
v -4.953813 1.780899 2.802301
v -5.356368 1.506403 0.705551
v -5.419654 1.070415 0.827527
v -5.563646 1.414043 1.497235
v -5.428428 1.690976 1.497815
v -9.044866 0.891235 -2.161602
v -8.826440 0.418437 -3.264721
v -8.813680 -0.166288 -3.038904
v -9.030149 0.216835 -1.901152
v -9.273116 0.709915 -0.744131
v -9.285876 1.294639 -0.969949
v -9.737668 0.899605 -2.260975
v -9.297231 0.359783 -3.528885
v -9.282434 -0.318258 -3.267029
v -9.716812 -0.056103 -1.891886
v -9.925743 0.633047 -0.950927
v -9.934668 1.042023 -1.108872
v -10.108719 0.839390 -2.333557
v -9.552923 0.344540 -3.499831
v -9.538919 -0.297169 -3.252007
v -10.088778 -0.074414 -1.980651
v -10.285962 0.588070 -1.079652
v -10.294409 0.975131 -1.229133
v -10.743248 0.683940 -2.276058
v -10.177474 0.317723 -3.395217
v -10.051691 -0.257167 -3.155908
v -10.780090 -0.173239 -1.946922
v -10.703974 0.536119 -1.119605
v -10.814310 0.862507 -1.245966
v -11.139584 0.591652 -2.345467
v -10.553278 0.194925 -3.205665
v -10.573387 -0.272931 -3.026020
v -11.170242 -0.121660 -2.071572
v -11.314809 0.399152 -1.513422
v -11.290669 0.680896 -1.623633
v -11.686012 0.423390 -2.357562
v -10.977369 0.236229 -3.146160
v -10.997496 -0.232023 -2.966362
v -11.620975 -0.108194 -2.137561
v -11.785372 0.341398 -1.411876
v -11.838486 0.618598 -1.527925
v -12.594778 0.281562 -2.234412
v -11.839808 0.119741 -2.773520
v -11.798014 -0.221857 -2.632147
v -12.497892 -0.082409 -2.076854
v -12.679859 0.236739 -1.644958
v -12.762042 0.421503 -1.723896
v -13.589848 0.458693 -2.512101
v -12.543579 0.057299 -2.563194
v -12.434587 -0.140856 -2.468758
v -13.675200 0.190583 -2.423901
v -13.160376 0.203575 -1.841827
v -13.121657 0.441284 -1.927599
v -8.612847 0.034077 -3.401736
v -7.114244 0.077691 -3.373485
v -8.996669 1.034548 -0.789461
v -7.980966 1.133139 -0.591566
v -9.589323 1.565607 0.603523
v -7.940807 1.725623 0.924712
v -8.765065 1.645615 0.764118
v -7.868603 1.998968 1.930355
v -8.403907 1.990140 1.940579
v -7.831842 2.195411 3.157729
v -8.108627 2.186632 3.136585
v -10.074174 1.750779 1.641450
v -9.671445 1.878406 1.885857
v -10.724674 1.895389 2.883380
v -10.547203 1.951631 2.991084
v -8.545418 -0.427348 -3.670071
v -7.352982 -0.554881 -3.855678
v -8.390641 -0.944913 -4.233568
v -6.894454 0.150537 -3.197279
v -7.702592 1.175041 -0.498796
v -6.365354 0.156565 -3.211567
v -6.708797 1.343509 -0.118727
v -5.619843 0.458495 -2.471888
v -6.426767 1.607272 0.548316
v -5.039798 0.800411 -0.944201
v -5.810491 1.636942 1.793125
v -4.533756 1.448717 3.345732
v -4.920166 1.284908 0.996759
v -5.609253 1.642909 2.399560
v -8.799837 0.016197 -3.437469
v -9.317405 1.003265 -0.852338
v -9.329049 -0.102440 -3.714758
v -10.074818 1.028332 -0.744631
v -9.617541 -0.099148 -3.689932
v -10.467686 0.954752 -0.912957
v -10.265882 -0.122604 -3.563304
v -11.071237 0.803288 -0.979092
v -10.767064 -0.145218 -3.415265
v -11.502452 0.528864 -1.395129
v -11.205307 -0.216086 -3.282984
v -12.151873 0.466244 -1.354452
v -12.188990 -0.192379 -2.934904
v -13.077929 0.375563 -1.708982
v -12.866982 -0.044324 -2.777434
v -14.213211 0.414409 -2.757055
v -13.702860 0.457942 -2.130853
vt 0.875000 0.750000
vt 0.875000 0.500000
vt 0.875000 0.500000
vt 0.875000 0.750000
vt 0.625000 0.500000
vt 0.625000 0.500000
vt 0.625000 0.500000
vt 0.625000 0.500000
vt 0.625000 0.750000
vt 0.625000 0.750000
vt 0.750000 0.750000
vt 0.875000 0.750000
vt 0.750000 0.750000
vt 0.250000 0.500000
vt 0.375000 0.500000
vt 0.375000 0.750000
vt 0.250000 0.750000
vt 0.750000 0.500000
vt 0.500000 0.500000
vt 0.375000 0.500000
vt 0.375000 0.500000
vt 0.500000 0.500000
vt 0.125000 0.500000
vt 0.125000 0.500000
vt 0.250000 0.500000
vt 0.750000 0.500000
vt 0.875000 0.500000
vt 0.875000 0.500000
vt 0.750000 0.500000
vt 0.625000 0.500000
vt 0.625000 0.500000
vt 0.750000 0.500000
vt 0.125000 0.500000
vt 0.250000 0.500000
vt 0.500000 0.250000
vt 0.625000 0.250000
vt 0.625000 0.250000
vt 0.500000 0.250000
vt 0.875000 0.500000
vt 0.750000 0.500000
vt 0.875000 0.500000
vt 0.125000 0.750000
vt 0.250000 0.750000
vt 0.125000 0.750000
vt 0.375000 0.500000
vt 0.250000 0.500000
vt 0.250000 0.500000
vt 0.375000 0.500000
vt 0.500000 0.375000
vt 0.625000 0.375000
vt 0.625000 0.375000
vt 0.500000 0.375000
vt 0.500000 0.500000
vt 0.500000 0.375000
vt 0.625000 0.375000
vt 0.625000 0.500000
vt 0.500000 0.500000
vt 0.750000 0.500000
vt 0.500000 0.375000
vt 0.375000 0.375000
vt 0.375000 0.375000
vt 0.500000 0.375000
vt 0.625000 0.250000
vt 0.500000 0.250000
vt 0.375000 0.375000
vt 0.125000 0.500000
vt 0.250000 0.500000
vt 0.500000 0.250000
vt 0.625000 0.250000
vt 0.625000 0.375000
vt 0.125000 0.500000
vt 0.250000 0.500000
vt 0.750000 0.500000
vt 0.875000 0.500000
vt 0.375000 0.750000
vt 0.375000 0.875000
vt 0.625000 0.750000
vt 0.500000 0.750000
vt 0.500000 0.750000
vt 0.500000 0.000000
vt 0.375000 0.000000
vt 0.375000 0.000000
vt 0.500000 0.000000
vt 0.000000 0.000000
vt 0.000000 0.000000
vt 0.500000 0.875000
vt 0.625000 0.875000
vt 0.000000 0.000000
vt 0.500000 0.750000
vt 0.375000 0.500000
vt 0.375000 0.500000
vt 0.375000 0.500000
vt 0.375000 0.500000
vt 0.625000 0.750000
vt 0.625000 0.500000
vt 0.500000 0.500000
vt 0.375000 0.750000
vt 0.500000 0.750000
vt 0.625000 0.500000
vt 0.625000 0.500000
vt 0.625000 0.500000
vt 0.375000 0.750000
vt 0.375000 0.500000
vt 0.375000 0.750000
vt 0.500000 0.750000
vt 0.500000 0.500000
vt 0.500000 0.750000
vt 0.375000 0.750000
vt 0.500000 0.750000
vt 0.375000 0.500000
vt 0.375000 0.500000
vt 0.375000 0.500000
vt 0.500000 0.500000
vt 0.625000 0.750000
vt 0.500000 0.500000
vt 0.625000 0.500000
vt 0.625000 0.500000
vt 0.500000 0.500000
vt 0.625000 0.500000
vt 0.625000 0.500000
vt 0.625000 0.750000
vt 0.500000 0.500000
vt 0.375000 0.500000
vt 0.375000 0.500000
vt 0.625000 0.750000
vt 0.500000 0.750000
vt 0.375000 0.750000
vt 0.500000 0.250000
vt 0.375000 0.250000
vt 0.375000 0.250000
vt 0.500000 0.250000
vt 0.875000 0.500000
vt 0.875000 0.500000
vt 0.125000 0.750000
vt 0.125000 0.500000
vt 0.125000 0.500000
vt 0.625000 0.000000
vt 0.625000 0.000000
vt 0.500000 0.000000
vt 0.375000 0.250000
vt 0.500000 0.000000
vt 0.625000 0.000000
vt 0.625000 0.000000
vt 0.500000 0.000000
vt 0.125000 0.500000
vt 0.125000 0.500000
vt 0.125000 0.500000
vt 0.125000 0.500000
vt 0.875000 0.750000
vt 0.125000 0.750000
vt 0.500000 0.250000
vt 0.375000 0.250000
vt 0.375000 0.250000
vt 0.500000 0.250000
vt 0.875000 0.500000
vt 0.875000 0.500000
vt 0.875000 0.500000
vt 0.875000 0.500000
vt 0.875000 0.750000
vt 0.125000 0.750000
vt 0.500000 0.000000
vt 0.625000 0.000000
vt 0.625000 0.000000
vt 0.500000 0.000000
vt 0.125000 0.500000
vt 0.125000 0.500000
vt 0.125000 0.500000
vt 0.125000 0.500000
vt 0.875000 0.750000
vt 0.125000 0.750000
vt 0.875000 0.750000
vt 0.875000 0.500000
vt 0.875000 0.500000
vt 0.875000 0.750000
vt 0.500000 0.250000
vt 0.375000 0.250000
vt 0.375000 0.250000
vt 0.500000 0.250000
vt 0.875000 0.500000
vt 0.125000 0.750000
vt 0.875000 0.500000
vt 0.875000 0.500000
vt 0.875000 0.500000
vt 0.500000 0.000000
vt 0.625000 0.000000
vt 0.625000 0.000000
vt 0.500000 0.000000
vt 0.125000 0.750000
vt 0.125000 0.500000
vt 0.125000 0.500000
vt 0.125000 0.500000
vt 0.125000 0.750000
vt 0.125000 0.750000
vt 0.125000 0.500000
vt 0.875000 0.750000
vt 0.875000 0.500000
vt 0.875000 0.750000
vt 0.375000 0.250000
vt 0.500000 0.250000
vt 0.125000 0.500000
vt 0.500000 0.000000
vt 0.625000 0.000000
vt 0.625000 0.250000
vt 0.500000 0.250000
vt 0.625000 0.250000
vt 0.500000 0.250000
vt 0.125000 0.500000
vt 0.875000 0.500000
vt 0.375000 0.250000
vt 0.625000 0.250000
vt 0.375000 0.000000
vt 0.375000 0.000000
vt 0.375000 0.250000
vt 0.625000 0.250000
vt 0.375000 0.000000
vt 0.375000 0.000000
vt 0.625000 0.250000
vt 0.625000 0.250000
vt 0.375000 0.000000
vt 0.375000 0.000000
vt 0.625000 0.250000
vt 0.625000 0.250000
vt 0.375000 0.000000
vt 0.375000 0.000000
vt 0.625000 0.250000
vt 0.625000 0.000000
vt 0.375000 0.250000
vt 0.375000 0.250000
vt 0.625000 0.375000
vt 0.375000 0.250000
vt 0.375000 0.375000
vt 0.375000 0.375000
vn 0.1601 -0.9069 0.3897
vn -0.3460 -0.9151 0.2072
vn -0.0688 -0.9294 0.3627
vn -0.0329 -0.3070 0.9512
vn -0.0103 0.7953 -0.6061
vn 0.0065 -0.9079 0.4190
vn 0.9946 0.1041 -0.0017
vn -0.0654 0.9857 -0.1556
vn 0.0139 -0.9217 0.3877
vn 0.4240 -0.7944 0.4349
vn 0.0098 -0.8971 0.4417
vn -0.0846 0.9945 -0.0610
vn 0.0330 -0.9518 0.3049
vn -0.9259 0.0859 -0.3678
vn 0.0252 -0.9185 0.3945
vn 0.0184 -0.9096 0.4150
vn 0.0450 0.7826 -0.6209
vn 0.0242 0.6537 -0.7564
vn -0.0207 0.9975 -0.0670
vn -0.9394 -0.0821 0.3330
vn 0.9260 0.3465 -0.1500
vn -0.0406 0.9768 -0.2102
vn 0.0008 -0.9271 0.3748
vn 0.0177 -0.9690 0.2466
vn -0.9579 -0.1174 0.2619
vn 0.7670 0.6342 -0.0976
vn 0.4220 0.8512 0.3122
vn -0.9071 -0.2455 -0.3419
vn 0.6580 0.6360 0.4032
vn -0.1084 0.9789 -0.1735
vn 0.0886 -0.9353 0.3425
vn -0.2241 0.9652 -0.1348
vn 0.1341 -0.9517 0.2761
vn -0.8540 -0.3253 -0.4060
vn -0.0276 0.7324 -0.6803
vn 0.1050 -0.4334 0.8951
vn 0.8855 -0.4348 0.1640
vn -0.9947 -0.0891 -0.0516
vn -0.0648 0.6777 -0.7325
vn 0.0276 -0.7324 0.6803
vn -0.3784 0.9215 0.0880
vn -0.9776 -0.1868 -0.0969
vn 0.0707 0.9831 -0.1691
vn -0.2003 -0.9454 0.2572
vn -0.5048 0.2296 0.8322
vn 0.7493 0.4097 -0.5204
vn 0.9189 0.3793 -0.1087
vn 0.8436 0.4486 0.2951
vn -0.2842 -0.8005 0.5276
vn 0.0152 0.9208 -0.3897
vn -0.0506 0.3121 -0.9487
vn -0.0830 0.9164 -0.3915
vn -0.1078 -0.8780 0.4663
vn -0.0593 -0.4518 0.8902
vn 0.6052 0.6992 -0.3806
vn -0.2983 0.9519 -0.0696
vn -0.8560 -0.1966 0.4781
vn 0.1795 -0.9595 0.2172
vn -0.2766 0.9563 -0.0946
vn 0.4534 0.5664 -0.6882
vn -0.3781 -0.8631 0.3348
vn -0.8891 -0.2146 0.4044
vn 0.4120 0.8641 -0.2892
vn -0.5570 -0.7465 0.3639
vn -0.8010 -0.3798 0.4628
vn 0.0785 -0.9749 0.2085
vn -0.3660 0.8833 0.2930
vn 0.3542 -0.9350 0.0158
vn 0.4674 -0.8738 0.1344
vn -0.1609 0.9870 -0.0001
vn 0.5789 0.7839 -0.2244
vn 0.4541 0.8653 -0.2123
vn -0.1498 0.8586 0.4902
vn 0.1464 -0.8480 0.5094
vn -0.9191 0.2329 -0.3177
vn -0.9447 0.2051 -0.2558
vn 0.0980 -0.8931 -0.4390
vn -0.1787 0.4190 0.8902
vn -0.0709 -0.9075 -0.4140
vn -0.1327 0.9807 -0.1434
vn 0.2771 -0.9109 0.3057
vn 0.0767 0.9245 -0.3735
vn -0.1307 0.9599 -0.2480
vn 0.4228 -0.8135 -0.3993
vn -0.2263 0.9735 -0.0341
vn 0.1019 -0.7757 0.6228
vn -0.1003 -0.8126 0.5742
vn -0.1723 0.9846 -0.0300
vn -0.0245 -0.9849 0.1714
vn -0.0800 0.9052 -0.4175
vn -0.0436 -0.9554 -0.2922
vn -0.2127 0.9615 -0.1739
vn 0.0649 -0.9857 0.1553
vn -0.1830 0.8870 -0.4240
vn -0.2286 0.9588 -0.1687
vn -0.0788 -0.9367 -0.3412
vn -0.0625 -0.9919 0.1103
vn -0.0172 0.8078 0.5893
vn -0.2657 -0.7274 0.6327
vn -0.4319 0.9016 -0.0242
vn -0.0386 -0.9957 0.0846
vn -0.3038 0.8162 -0.4914
vn -0.0163 -0.8352 0.5498
vn -0.0343 -0.9986 -0.0401
vn -0.1378 0.8946 -0.4250
vn -0.2171 0.9517 -0.2170
vn -0.0092 -0.9809 -0.1944
vn 0.0615 -0.7891 0.6112
vn 0.0779 0.8292 -0.5535
vn -0.2013 -0.9730 0.1126
vn -0.2215 0.9421 0.2517
vn 0.0294 -0.9764 0.2139
vn -0.2612 0.8231 -0.5043
vn -0.1642 0.9470 -0.2760
vn -0.2928 -0.9556 -0.0343
vn -0.5778 -0.6294 0.5197
vn 0.1983 0.9666 -0.1627
vn -0.1666 -0.9858 0.0212
vn -0.2521 -0.8921 0.3750
vn -0.0948 0.9480 0.3039
vn -0.4625 -0.3924 0.7951
vn -0.1201 0.7673 -0.6300
vn -0.0213 0.9998 -0.0043
vn 0.2273 0.6894 -0.6877
vn -0.1997 -0.5591 0.8047
vn -0.2056 0.4859 -0.8495
vn -0.3280 0.5478 -0.7696
vn -0.2177 -0.7281 0.6499
vn 0.1528 -0.3142 0.9370
vn -0.1792 0.3959 -0.9006
vn -0.3807 0.5181 -0.7659
vn -0.2450 -0.5100 0.8246
vn -0.0056 -0.4401 0.8979
vn 0.3974 0.3496 -0.8484
vn -0.0992 0.3904 -0.9153
vn -0.0721 0.1979 0.9776
vn -0.3123 0.1603 -0.9364
vn -0.0634 -0.1582 0.9854
vn 0.4183 -0.8803 0.2238
vn 0.6562 0.7307 -0.1885
vn -0.7943 -0.4079 0.4502
vn 0.0910 0.9790 -0.1824
vn -0.1303 0.9914 0.0128
vn 0.4847 -0.8641 -0.1358
vn -0.1244 0.9640 -0.2349
vn 0.5269 -0.8499 0.0051
vn -0.0040 0.9831 0.1829
vn -0.0248 -0.8702 -0.4921
vn 0.5023 -0.8473 -0.1727
vn -0.4515 0.3545 0.8188
vn -0.9800 -0.1224 -0.1568
vn -0.3439 0.0052 0.9390
vn -0.9874 -0.1169 -0.1064
vn 0.7722 0.2230 -0.5949
vn -0.8812 -0.1797 -0.4372
vn -0.2659 0.9619 -0.0641
vn 0.7254 -0.2183 0.6528
vn -0.9101 -0.1597 -0.3825
vn 0.6659 -0.4541 0.5919
vn 0.7912 -0.6034 0.0997
vn -0.9633 0.1564 0.2182
vn -0.0368 0.9970 0.0680
vn 0.9268 -0.3694 0.0677
vn -0.9546 0.1776 0.2391
vn -0.9291 -0.2545 -0.2683
vn 0.9916 -0.1120 0.0649
usemtl None
s off
f 2/1/1 4/2/1 82/3/1 81/4/1
f 12/5/2 8/6/2 49/7/2 53/8/2
f 8/6/3 6/9/3 52/10/3 49/7/3
f 20/11/4 2/1/4 42/12/4 46/13/4
f 17/14/5 7/15/5 5/16/5 19/17/5
f 18/18/6 4/2/6 2/1/6 20/11/6
f 130/19/7 11/20/7 15/21/7 132/22/7
f 17/14/8 3/23/8 10/24/8 21/25/8
f 18/18/9 8/6/9 12/5/9 22/26/9
f 4/2/10 9/27/10 83/28/10 82/3/10
f 24/29/11 16/30/11 26/31/11 25/32/11
f 21/25/12 10/24/12 14/33/12 23/34/12
f 22/26/13 12/5/13 16/30/13 24/29/13
f 129/35/14 9/36/14 13/37/14 131/38/14
f 9/27/13 22/26/13 24/29/13 13/39/13
f 11/20/12 21/25/12 23/34/12 15/21/12
f 13/39/15 24/29/15 36/40/15 33/41/15
f 4/2/9 18/18/9 22/26/9 9/27/9
f 7/15/8 17/14/8 21/25/8 11/20/8
f 8/6/16 18/18/16 20/11/16 6/9/16
f 3/23/17 17/14/17 19/17/17 1/42/17
f 1/42/18 19/17/18 45/43/18 41/44/18
f 27/45/19 28/46/19 32/47/19 31/48/19
f 133/49/20 24/50/20 25/51/20 135/52/20
f 132/22/21 15/21/21 27/45/21 134/53/21
f 15/21/22 23/34/22 28/46/22 27/45/22
f 137/54/23 29/55/23 30/56/23 136/57/23
f 25/32/24 26/31/24 30/56/24 29/58/24
f 135/52/25 25/51/25 29/55/25 137/54/25
f 134/53/26 27/45/26 31/48/26 136/57/26
f 139/59/27 35/60/27 39/61/27 141/62/27
f 131/38/28 13/37/28 33/63/28 138/64/28
f 133/49/29 23/65/29 35/60/29 139/59/29
f 23/34/30 14/33/30 34/66/30 35/67/30
f 140/68/31 37/69/31 40/70/31 141/62/31
f 35/67/32 34/66/32 38/71/32 39/72/32
f 33/41/33 36/40/33 40/73/33 37/74/33
f 138/64/34 33/63/34 37/69/34 140/68/34
f 44/75/35 47/76/35 45/43/35
f 45/43/35 47/76/35 41/44/35
f 6/9/36 20/11/36 46/13/36 43/77/36
f 128/78/37 6/9/37 43/77/37 143/79/37
f 127/80/38 1/81/38 41/82/38 142/83/38
f 19/17/39 5/16/39 44/75/39 45/43/39
f 42/12/40 48/84/40 46/85/40
f 143/79/41 144/86/41 48/87/41 43/77/41
f 43/88/35 48/84/35 46/85/35
f 142/89/42 144/86/42 48/87/42 42/12/42
f 50/90/43 54/91/43 60/92/43 56/93/43
f 49/7/44 52/10/44 58/94/44 55/95/44
f 130/19/45 12/5/45 53/8/45 146/96/45
f 128/78/46 5/16/46 51/97/46 145/98/46
f 5/16/47 7/15/47 50/90/47 51/97/47
f 7/15/48 11/20/48 54/91/48 50/90/48
f 59/99/49 55/95/49 61/100/49 65/101/49
f 57/102/50 56/93/50 62/103/50 63/104/50
f 145/98/51 51/97/51 57/102/51 147/105/51
f 51/97/52 50/90/52 56/93/52 57/102/52
f 53/8/53 49/7/53 55/95/53 59/99/53
f 146/96/54 53/8/54 59/99/54 148/106/54
f 149/107/55 63/104/55 69/108/55 151/109/55
f 62/103/56 66/110/56 72/111/56 68/112/56
f 148/106/57 59/99/57 65/101/57 150/113/57
f 55/95/58 58/94/58 64/114/58 61/100/58
f 56/93/59 60/92/59 66/110/59 62/103/59
f 147/105/60 57/102/60 63/104/60 149/107/60
f 152/115/61 71/116/61 77/117/61 155/118/61
f 71/116/62 67/119/62 73/120/62 77/117/62
f 63/104/63 62/103/63 68/112/63 69/108/63
f 65/101/64 61/100/64 67/119/64 71/116/64
f 150/113/65 65/101/65 71/116/65 152/115/65
f 61/100/66 64/114/66 70/121/66 67/119/66
f 153/122/67 74/123/67 78/124/67 155/118/67
f 153/122/68 73/120/68 76/125/68 154/126/68
f 67/119/69 70/121/69 76/125/69 73/120/69
f 68/112/70 72/111/70 78/124/70 74/123/70
f 151/109/71 69/108/71 75/127/71 154/126/71
f 69/108/72 68/112/72 74/123/72 75/127/72
f 157/128/73 84/129/73 90/130/73 159/131/73
f 82/3/74 83/28/74 89/132/74 88/133/74
f 3/23/75 1/42/75 80/134/75 79/135/75
f 10/24/76 3/23/76 79/135/76 84/136/76
f 127/80/77 2/137/77 81/138/77 156/139/77
f 129/35/78 10/140/78 84/129/78 157/128/78
f 158/141/79 87/142/79 93/143/79 160/144/79
f 90/145/80 85/146/80 91/147/80 96/148/80
f 81/4/81 82/3/81 88/133/81 87/149/81
f 79/135/82 80/134/82 86/150/82 85/146/82
f 84/136/83 79/135/83 85/146/83 90/145/83
f 156/139/84 81/138/84 87/142/84 158/141/84
f 161/151/85 96/152/85 102/153/85 163/154/85
f 94/155/86 95/156/86 101/157/86 100/158/86
f 88/133/87 89/132/87 95/156/87 94/155/87
f 159/131/88 90/130/88 96/152/88 161/151/88
f 87/149/89 88/133/89 94/155/89 93/159/89
f 85/146/90 86/150/90 92/160/90 91/147/90
f 162/161/91 99/162/91 105/163/91 164/164/91
f 102/165/92 97/166/92 103/167/92 108/168/92
f 93/159/93 94/155/93 100/158/93 99/169/93
f 91/147/94 92/160/94 98/170/94 97/166/94
f 96/148/95 91/147/95 97/166/95 102/165/95
f 160/144/96 93/143/96 99/162/96 162/161/96
f 105/171/97 106/172/97 112/173/97 111/174/97
f 165/175/98 108/176/98 114/177/98 167/178/98
f 100/158/99 101/157/99 107/179/99 106/172/99
f 163/154/100 102/153/100 108/176/100 165/175/100
f 99/169/101 100/158/101 106/172/101 105/171/101
f 97/166/102 98/170/102 104/180/102 103/167/102
f 112/173/103 113/181/103 119/182/103 118/183/103
f 166/184/104 111/185/104 117/186/104 168/187/104
f 103/167/105 104/180/105 110/188/105 109/189/105
f 108/168/106 103/167/106 109/189/106 114/190/106
f 164/164/107 105/163/107 111/185/107 166/184/107
f 106/172/108 107/179/108 113/181/108 112/173/108
f 115/191/109 116/192/109 122/193/109 121/194/109
f 117/195/110 118/183/110 124/196/110 123/197/110
f 167/178/111 114/177/111 120/198/111 169/199/111
f 111/174/112 112/173/112 118/183/112 117/195/112
f 109/189/113 110/188/113 116/192/113 115/191/113
f 114/190/114 109/189/114 115/191/114 120/200/114
f 170/201/115 123/202/115 124/203/115 171/204/115
f 171/204/116 124/203/116 125/205/116 172/206/116
f 120/200/117 115/191/117 121/194/117 126/207/117
f 168/187/118 117/186/118 123/202/118 170/201/118
f 118/183/119 119/182/119 125/208/119 124/196/119
f 169/199/120 120/198/120 126/209/120 172/206/120
f 119/210/121 169/199/121 172/206/121 125/205/121
f 116/211/122 168/187/122 170/201/122 122/212/122
f 121/213/123 171/204/123 172/206/123 126/209/123
f 122/212/124 170/201/124 171/204/124 121/213/124
f 113/214/125 167/178/125 169/199/125 119/210/125
f 104/215/126 164/164/126 166/184/126 110/216/126
f 110/216/127 166/184/127 168/187/127 116/211/127
f 101/217/128 163/154/128 165/175/128 107/218/128
f 107/218/129 165/175/129 167/178/129 113/214/129
f 92/219/130 160/144/130 162/161/130 98/220/130
f 98/220/131 162/161/131 164/164/131 104/215/131
f 89/221/132 159/131/132 161/151/132 95/222/132
f 95/222/133 161/151/133 163/154/133 101/217/133
f 80/223/134 156/139/134 158/141/134 86/224/134
f 86/224/135 158/141/135 160/144/135 92/219/135
f 9/36/136 129/35/136 157/128/136 83/225/136
f 1/81/137 127/80/137 156/139/137 80/223/137
f 83/225/138 157/128/138 159/131/138 89/221/138
f 70/121/139 151/109/139 154/126/139 76/125/139
f 74/123/140 153/122/140 154/126/140 75/127/140
f 73/120/141 153/122/141 155/118/141 77/117/141
f 66/110/142 150/113/142 152/115/142 72/111/142
f 72/111/143 152/115/143 155/118/143 78/124/143
f 58/94/144 147/105/144 149/107/144 64/114/144
f 60/92/145 148/106/145 150/113/145 66/110/145
f 64/114/146 149/107/146 151/109/146 70/121/146
f 54/91/147 146/96/147 148/106/147 60/92/147
f 52/10/148 145/98/148 147/105/148 58/94/148
f 6/9/149 128/78/149 145/98/149 52/10/149
f 11/20/150 130/19/150 146/96/150 54/91/150
f 41/44/151 47/76/151 144/86/151 142/89/151
f 44/75/152 47/76/152 144/86/152 143/79/152
f 2/137/153 127/80/153 142/83/153 42/226/153
f 5/16/154 128/78/154 143/79/154 44/75/154
f 34/227/155 138/64/155 140/68/155 38/228/155
f 38/228/156 140/68/156 141/62/156 39/61/156
f 24/50/157 133/49/157 139/59/157 36/229/157
f 14/230/158 131/38/158 138/64/158 34/227/158
f 36/229/159 139/59/159 141/62/159 40/70/159
f 26/31/160 134/53/160 136/57/160 30/56/160
f 28/231/161 135/52/161 137/54/161 32/232/161
f 32/232/162 137/54/162 136/57/162 31/48/162
f 16/30/163 132/22/163 134/53/163 26/31/163
f 23/65/164 133/49/164 135/52/164 28/231/164
f 10/140/165 129/35/165 131/38/165 14/230/165
f 12/5/166 130/19/166 132/22/166 16/30/166
