# Blender v2.90.1 OBJ File: 'falo_caldas1.blend'
# www.blender.org
mtllib falo_caldas2.mtl
o Cube
v 1.000000 -1.000000 -1.000000
v 1.000000 1.000000 -1.000000
v 1.506254 -1.000000 0.444753
v 1.506255 1.000000 0.477414
v 0.308353 1.000000 -0.871478
v 0.575181 1.000000 -0.985425
v 0.333333 -1.000000 0.657053
v 1.287237 -1.000000 0.657053
v 1.287237 1.000000 0.689715
v 0.333334 1.000000 0.689715
v 0.575181 -1.000000 -0.985425
v 0.308353 -1.000000 -0.871478
v 1.318657 1.000000 -0.380720
v 1.620571 0.999999 0.023048
v 1.620570 -1.000000 -0.009613
v 1.318656 -1.000000 -0.380720
v 1.042921 1.264757 -0.193421
v 1.172922 1.264757 0.153695
v 0.333334 1.264757 -0.333333
v 0.333334 1.264757 0.023048
v 0.333333 -1.301336 -0.333333
v 0.333333 -1.301336 -0.009613
v 1.042920 -1.301337 -0.193421
v 1.172921 -1.301337 0.121033
v 1.751217 0.333333 0.624391
v 1.751217 -0.333334 0.624391
v 1.000000 -0.333334 -1.000000
v 1.000000 0.333333 -1.000000
v 0.333333 -0.333333 1.000000
v 0.333333 0.333333 1.000000
v 1.417883 -0.333334 1.000000
v 1.417884 0.333333 1.000000
v 1.836180 -0.333334 -0.009614
v 1.836180 0.333333 -0.009614
v 1.565870 -0.333334 -0.621829
v 1.565870 0.333333 -0.621829
v 0.617675 1.000000 -2.616749
v 0.869354 1.000000 -2.453441
v 0.869354 0.333333 -2.453441
v 0.333333 -1.000000 -2.698403
v 0.333334 1.000000 -2.698403
v 0.869353 -1.000000 -2.453441
v 0.617674 -1.000000 -2.616749
v 0.617674 0.333333 -2.616749
v 0.333333 0.333333 -2.698403
v 0.869353 -0.333334 -2.453441
v 0.617674 -0.333334 -2.616749
v 0.333333 -0.333333 -2.698403
v 0.575179 -4.884081 -0.985425
v 0.308351 -5.080050 -0.871478
v 0.869352 -4.802427 -2.453441
v 0.617673 -4.884081 -2.616749
v 0.999998 -4.802427 -1.000000
v 0.333332 -5.080050 -2.698403
v 0.575180 -2.982868 -0.985425
v 0.617673 -2.982868 -2.616749
v 0.308352 -2.982867 -0.871478
v 0.869353 -2.982868 -2.453441
v 0.999999 -2.982868 -1.000000
v 0.333332 -2.982867 -2.698403
v 0.333334 1.000000 -1.566134
v 0.333334 1.000000 -2.132269
v 0.951008 0.333333 -2.050615
v 1.000000 0.333333 -1.566134
v 0.617675 1.000000 -2.050615
v 0.666667 1.000000 -1.566134
v 1.000000 1.000000 -1.566134
v 0.951008 1.000000 -2.050615
v 0.951007 -0.333334 -2.050615
v 1.000000 -0.333334 -1.566134
v 1.000000 -1.000000 -1.566134
v 0.951007 -1.000000 -2.050615
v 0.999998 -4.802427 -1.566134
v 0.951006 -4.802427 -2.050615
v 0.999999 -2.982868 -1.566134
v 0.951007 -2.982868 -2.050615
v 0.329027 -4.968266 -0.519083
v 0.329026 -6.151180 -0.728551
v 1.021013 -5.190213 -0.909381
v 0.755708 -5.801737 -0.648193
v 0.271225 -6.216701 -2.237614
v 0.271225 -5.561495 -2.994741
v 0.651491 -5.867258 -2.128413
v 0.651491 -5.212052 -2.885540
v 1.097279 -5.190213 -2.128413
v 0.988078 -4.904905 -2.667138
v 0.988078 -4.596984 -2.667138
v 1.162799 -4.596984 -0.723362
v 0.271225 -4.968266 -2.994741
v 0.755708 -4.706185 -0.648193
v 0.651492 -4.706184 -2.885540
v 1.097279 -4.596984 -2.128413
v 0.271224 -6.435102 -1.480488
v 0.717012 -6.085660 -1.480488
v 1.162799 -5.190213 -1.480488
v 1.162799 -4.596984 -1.480488
v 0.575181 1.000000 -0.985425
v 0.575181 -1.000000 -0.985425
v 0.575179 -4.884081 -0.985425
v 0.575180 -2.982868 -0.985425
v -1.000000 -1.000000 -1.000000
v -1.000000 1.000000 -1.000000
v -1.506255 -1.000000 0.444753
v -1.506254 1.000000 0.477414
v 0.000000 1.000000 -0.705311
v -0.000000 -1.000000 0.346768
v 0.000000 1.000000 0.379430
v -0.000000 -1.000000 -0.705311
v -0.308353 1.000000 -0.871478
v -0.575181 1.000000 -0.985425
v -0.333334 -1.000000 0.657053
v -1.287237 -1.000000 0.657053
v -1.287237 1.000000 0.689715
v -0.333333 1.000000 0.689715
v -0.575181 -1.000000 -0.985425
v -0.308353 -1.000000 -0.871478
v -1.318656 1.000000 -0.380720
v -1.620570 1.000000 0.023048
v -1.620571 -0.999999 -0.009613
v -1.318657 -1.000000 -0.380720
v 0.000000 1.000000 -0.333333
v 0.000000 1.000000 0.023048
v -0.000000 -1.000000 -0.333333
v -0.000000 -1.000000 -0.009613
v -1.042920 1.264758 -0.193421
v -1.172921 1.264758 0.153695
v -0.333333 1.264757 -0.333333
v -0.333333 1.264757 0.023048
v -0.333334 -1.301336 -0.333333
v -0.333334 -1.301336 -0.009613
v -1.042921 -1.301336 -0.193421
v -1.172922 -1.301336 0.121033
v -1.751217 0.333334 0.624391
v -1.751217 -0.333333 0.624391
v -1.000000 -0.333333 -1.000000
v -1.000000 0.333334 -1.000000
v -0.000000 -0.333333 -0.705311
v 0.000000 0.333333 -0.705311
v -0.000000 -0.333333 0.689715
v 0.000000 0.333333 0.689715
v -0.000002 -5.964563 -0.705311
v -0.333333 -0.333333 1.000000
v -0.333333 0.333333 1.000000
v -1.417884 -0.333333 1.000000
v -1.417883 0.333334 1.000000
v -0.000000 -0.333333 -0.333333
v 0.000000 0.333333 -0.333333
v -0.000000 -0.333333 0.333333
v 0.000000 0.333333 0.333333
v -1.836180 -0.333333 -0.009614
v -1.836180 0.333334 -0.009614
v -1.565870 -0.333333 -0.621829
v -1.565870 0.333334 -0.621829
v -0.617674 1.000000 -2.616749
v -0.869353 1.000000 -2.453441
v -0.869353 0.333334 -2.453441
v -0.333334 -1.000000 -2.698403
v -0.000000 -1.000000 -2.698403
v 0.000000 0.333333 -2.698403
v 0.000000 1.000000 -2.698403
v -0.333333 1.000000 -2.698403
v -0.869354 -1.000000 -2.453441
v -0.617675 -1.000000 -2.616749
v -0.617674 0.333334 -2.616749
v -0.333333 0.333333 -2.698403
v -0.869354 -0.333333 -2.453441
v -0.000000 -0.333333 -2.698403
v -0.617674 -0.333333 -2.616749
v -0.333333 -0.333333 -2.698403
v -0.000002 -5.523632 -2.698403
v -0.575182 -4.884081 -0.985425
v -0.308355 -5.080050 -0.871478
v -0.869355 -4.802426 -2.453441
v -0.617676 -4.884081 -2.616749
v -1.000002 -4.802426 -1.000000
v -0.333335 -5.080050 -2.698403
v -0.000002 -5.422997 -2.698403
v -0.000002 -5.374005 -0.841022
v -0.575182 -2.982867 -0.985425
v -0.617675 -2.982867 -2.616749
v -0.000001 -2.982867 -2.698403
v -0.000001 -2.982867 -0.841022
v -0.308354 -2.982867 -0.871478
v -0.869355 -2.982867 -2.453441
v -1.000001 -2.982867 -1.000000
v -0.333334 -2.982867 -2.698403
v -0.000000 -1.000000 -2.132269
v -0.000000 -1.000000 -1.566134
v -0.000000 -0.333333 -1.566134
v -0.000000 -0.333333 -2.132269
v -0.333333 1.000000 -1.566134
v -0.333333 1.000000 -2.132269
v -0.951007 0.333334 -2.050615
v -1.000000 0.333334 -1.566134
v 0.000000 0.333333 -2.132269
v 0.000000 0.333333 -1.566134
v 0.000000 1.000000 -1.566134
v 0.000000 1.000000 -2.132269
v -0.617674 1.000000 -2.050615
v -0.666666 1.000000 -1.566134
v -1.000000 1.000000 -1.566134
v -0.951007 1.000000 -2.050615
v -0.951008 -0.333333 -2.050615
v -1.000000 -0.333333 -1.566134
v -1.000000 -1.000000 -1.566134
v -0.951008 -1.000000 -2.050615
v -0.000002 -6.013556 -2.132269
v -0.000002 -6.176864 -1.566134
v -0.000002 -5.422997 -2.132269
v -0.000002 -5.422997 -1.566134
v -1.000002 -4.802426 -1.566134
v -0.951009 -4.802426 -2.050615
v -1.000001 -2.982867 -1.566134
v -0.951009 -2.982867 -2.050615
v -0.000001 -2.982867 -2.132269
v -0.000001 -2.982867 -1.566134
v -0.329030 -4.968266 -0.519083
v -0.329030 -6.151180 -0.728551
v -0.000002 -6.151180 -0.875637
v -1.021016 -5.190212 -0.909381
v -0.755711 -5.801736 -0.648193
v -0.000002 -6.435102 -1.480488
v -0.271229 -6.216701 -2.237614
v -0.271228 -5.561495 -2.994741
v -0.651495 -5.867258 -2.128413
v -0.651495 -5.212052 -2.885540
v -1.097282 -5.190212 -2.128413
v -0.988081 -4.904904 -2.667138
v -0.000002 -5.561495 -2.994741
v -0.988081 -4.596983 -2.667138
v -1.162802 -4.596983 -0.723362
v -0.271228 -4.968266 -2.994741
v -0.755711 -4.706184 -0.648193
v -0.651495 -4.706184 -2.885540
v -0.000002 -5.426910 -2.994741
v -0.000002 -5.361390 -0.440530
v -1.097282 -4.596983 -2.128413
v -0.000002 -6.216701 -2.237614
v -0.271229 -6.435102 -1.480488
v -0.717016 -6.085660 -1.480488
v -1.162802 -5.190212 -1.480488
v -1.162802 -4.596983 -1.480488
v -0.575181 1.000000 -0.985425
v -0.575181 -1.000000 -0.985425
v -0.575182 -4.884081 -0.985425
v -0.575182 -2.982867 -0.985425
vt 0.833333 0.666667
vt 0.875000 0.666667
vt 0.875000 0.750000
vt 0.833333 0.750000
vt 0.541667 0.958333
vt 0.625000 0.958333
vt 0.625000 1.000000
vt 0.541667 1.000000
vt 0.541667 0.166667
vt 0.625000 0.166667
vt 0.625000 0.250000
vt 0.541667 0.250000
vt 0.208333 0.500000
vt 0.166667 0.500000
vt 0.166667 0.500000
vt 0.208333 0.500000
vt 0.208333 0.666667
vt 0.250000 0.666667
vt 0.250000 0.750000
vt 0.208333 0.750000
vt 0.125000 0.666667
vt 0.166667 0.666667
vt 0.166667 0.750000
vt 0.125000 0.750000
vt 0.541667 0.875000
vt 0.625000 0.875000
vt 0.625000 0.916667
vt 0.541667 0.916667
vt 0.750000 0.666667
vt 0.791667 0.666667
vt 0.791667 0.750000
vt 0.750000 0.750000
vt 0.791667 0.500000
vt 0.833333 0.500000
vt 0.833333 0.583333
vt 0.791667 0.583333
vt 0.750000 0.500000
vt 0.750000 0.583333
vt 0.166667 0.500000
vt 0.208333 0.500000
vt 0.208333 0.583333
vt 0.166667 0.583333
vt 0.125000 0.500000
vt 0.125000 0.583333
vt 0.250000 0.500000
vt 0.250000 0.583333
vt 0.541667 0.000000
vt 0.625000 0.000000
vt 0.625000 0.083333
vt 0.541667 0.083333
vt 0.875000 0.500000
vt 0.875000 0.583333
vt 0.375000 0.083333
vt 0.458333 0.083333
vt 0.458333 0.166667
vt 0.375000 0.166667
vt 0.375000 0.000000
vt 0.458333 0.000000
vt 0.375000 0.916667
vt 0.458333 0.916667
vt 0.458333 0.958333
vt 0.375000 0.958333
vt 0.375000 0.875000
vt 0.458333 0.875000
vt 0.250000 0.500000
vt 0.250000 0.500000
vt 0.458333 0.250000
vt 0.541667 0.250000
vt 0.541667 0.250000
vt 0.458333 0.250000
vt 0.125000 0.500000
vt 0.125000 0.500000
vt 0.625000 0.250000
vt 0.625000 0.250000
vt 0.458333 0.250000
vt 0.375000 0.250000
vt 0.458333 1.000000
vt 0.375000 1.000000
vt 0.541667 0.333333
vt 0.625000 0.333333
vt 0.625000 0.375000
vt 0.541667 0.375000
vt 0.625000 0.291667
vt 0.541667 0.291667
vt 0.375000 0.291667
vt 0.458333 0.291667
vt 0.458333 0.333333
vt 0.375000 0.333333
vt 0.375000 0.250000
vt 0.458333 0.375000
vt 0.375000 0.375000
vt 0.375000 0.250000
vt 0.833333 0.500000
vt 0.791667 0.500000
vt 0.791667 0.500000
vt 0.833333 0.500000
vt 0.625000 0.375000
vt 0.625000 0.333333
vt 0.625000 0.333333
vt 0.625000 0.375000
vt 0.625000 0.250000
vt 0.625000 0.250000
vt 0.625000 0.250000
vt 0.625000 0.250000
vt 0.625000 0.250000
vt 0.625000 0.250000
vt 0.750000 0.500000
vt 0.750000 0.500000
vt 0.625000 0.333333
vt 0.625000 0.291667
vt 0.625000 0.291667
vt 0.875000 0.500000
vt 0.833333 0.500000
vt 0.875000 0.500000
vt 0.791667 0.500000
vt 0.750000 0.500000
vt 0.625000 0.375000
vt 0.625000 0.250000
vt 0.625000 0.250000
vt 0.625000 0.250000
vt 0.625000 0.250000
vt 0.625000 0.250000
vt 0.625000 0.250000
vt 0.875000 0.500000
vt 0.625000 0.291667
vt 0.625000 0.250000
vt 0.458333 0.250000
vt 0.375000 0.250000
vt 0.541667 0.250000
vt 0.125000 0.500000
vt 0.166667 0.500000
vt 0.208333 0.500000
vt 0.250000 0.500000
vt 0.625000 0.250000
vt 0.625000 0.250000
vt 0.625000 0.250000
vt 0.625000 0.291667
vt 0.791667 0.500000
vt 0.833333 0.500000
vt 0.833333 0.500000
vt 0.791667 0.500000
vt 0.791667 0.500000
vt 0.833333 0.500000
vt 0.875000 0.500000
vt 0.875000 0.500000
vt 0.750000 0.500000
vt 0.750000 0.500000
vt 0.625000 0.333333
vt 0.625000 0.375000
vt 0.750000 0.500000
vt 0.875000 0.500000
vt 0.750000 0.500000
vt 0.791667 0.500000
vt 0.833333 0.500000
vt 0.875000 0.500000
vt 0.625000 0.250000
vt 0.833333 0.666667
vt 0.833333 0.750000
vt 0.875000 0.750000
vt 0.875000 0.666667
vt 0.541667 0.958333
vt 0.541667 1.000000
vt 0.625000 1.000000
vt 0.625000 0.958333
vt 0.541667 0.166667
vt 0.541667 0.250000
vt 0.625000 0.250000
vt 0.625000 0.166667
vt 0.541667 0.708333
vt 0.500000 0.833333
vt 0.666667 0.750000
vt 0.208333 0.500000
vt 0.208333 0.500000
vt 0.166667 0.500000
vt 0.166667 0.500000
vt 0.208333 0.666667
vt 0.208333 0.750000
vt 0.125000 0.666667
vt 0.125000 0.750000
vt 0.166667 0.750000
vt 0.166667 0.666667
vt 0.750000 0.500000
vt 0.750000 0.500000
vt 0.625000 0.458333
vt 0.625000 0.458333
vt 0.541667 0.916667
vt 0.625000 0.916667
vt 0.791667 0.750000
vt 0.791667 0.666667
vt 0.791667 0.500000
vt 0.791667 0.583333
vt 0.833333 0.583333
vt 0.833333 0.500000
vt 0.166667 0.500000
vt 0.166667 0.583333
vt 0.208333 0.583333
vt 0.208333 0.500000
vt 0.125000 0.500000
vt 0.125000 0.583333
vt 0.625000 0.458333
vt 0.583333 0.583333
vt 0.708333 0.625000
vt 0.541667 0.000000
vt 0.541667 0.083333
vt 0.625000 0.083333
vt 0.625000 0.000000
vt 0.875000 0.583333
vt 0.875000 0.500000
vt 0.375000 0.083333
vt 0.375000 0.166667
vt 0.458333 0.166667
vt 0.458333 0.083333
vt 0.375000 0.000000
vt 0.458333 0.000000
vt 0.333333 0.500000
vt 0.291667 0.625000
vt 0.416667 0.666667
vt 0.458333 0.541667
vt 0.375000 0.375000
vt 0.500000 0.416667
vt 0.375000 0.916667
vt 0.375000 0.958333
vt 0.458333 0.958333
vt 0.458333 0.916667
vt 0.458333 0.250000
vt 0.458333 0.250000
vt 0.541667 0.250000
vt 0.541667 0.250000
vt 0.500000 0.416667
vt 0.500000 0.416667
vt 0.375000 0.375000
vt 0.125000 0.500000
vt 0.125000 0.500000
vt 0.625000 0.250000
vt 0.625000 0.250000
vt 0.375000 0.791667
vt 0.375000 0.250000
vt 0.458333 0.250000
vt 0.375000 1.000000
vt 0.458333 1.000000
vt 0.541667 0.333333
vt 0.625000 0.333333
vt 0.541667 0.291667
vt 0.625000 0.291667
vt 0.375000 0.291667
vt 0.375000 0.333333
vt 0.458333 0.333333
vt 0.458333 0.291667
vt 0.375000 0.250000
vt 0.375000 0.250000
vt 0.750000 0.500000
vt 0.750000 0.500000
vt 0.750000 0.500000
vt 0.833333 0.500000
vt 0.833333 0.500000
vt 0.791667 0.500000
vt 0.791667 0.500000
vt 0.625000 0.333333
vt 0.625000 0.333333
vt 0.750000 0.500000
vt 0.750000 0.500000
vt 0.625000 0.250000
vt 0.625000 0.250000
vt 0.625000 0.250000
vt 0.625000 0.250000
vt 0.625000 0.250000
vt 0.625000 0.250000
vt 0.625000 0.333333
vt 0.625000 0.291667
vt 0.625000 0.291667
vt 0.875000 0.500000
vt 0.875000 0.500000
vt 0.833333 0.500000
vt 0.791667 0.500000
vt 0.750000 0.500000
vt 0.750000 0.500000
vt 0.625000 0.250000
vt 0.625000 0.250000
vt 0.625000 0.250000
vt 0.625000 0.250000
vt 0.625000 0.250000
vt 0.750000 0.500000
vt 0.750000 0.500000
vt 0.625000 0.250000
vt 0.750000 0.500000
vt 0.750000 0.500000
vt 0.750000 0.500000
vt 0.875000 0.500000
vt 0.625000 0.291667
vt 0.625000 0.250000
vt 0.625000 0.458333
vt 0.500000 0.416667
vt 0.375000 0.250000
vt 0.458333 0.250000
vt 0.541667 0.250000
vt 0.166667 0.500000
vt 0.125000 0.500000
vt 0.375000 0.375000
vt 0.208333 0.500000
vt 0.625000 0.250000
vt 0.625000 0.250000
vt 0.625000 0.291667
vt 0.625000 0.250000
vt 0.833333 0.500000
vt 0.791667 0.500000
vt 0.833333 0.500000
vt 0.833333 0.500000
vt 0.791667 0.500000
vt 0.791667 0.500000
vt 0.875000 0.500000
vt 0.875000 0.500000
vt 0.625000 0.333333
vt 0.875000 0.500000
vt 0.791667 0.500000
vt 0.875000 0.500000
vt 0.833333 0.500000
vt 0.625000 0.250000
vn 0.5031 -0.8268 0.2516
vn 0.6586 -0.4281 0.6188
vn 0.7243 -0.2505 -0.6423
vn 0.0000 1.0000 0.0000
vn -0.4480 0.8655 0.2240
vn 0.4589 0.8583 0.2295
vn -0.0295 0.9138 0.4051
vn -0.6376 -0.3524 0.6850
vn -0.0000 -0.4574 0.8892
vn -0.4920 -0.8351 0.2460
vn -0.0328 -0.8923 0.4503
vn 0.0111 -0.9093 -0.4161
vn -0.0000 -1.0000 0.0000
vn -0.4654 -0.8440 -0.2667
vn -0.6706 -0.7418 0.0000
vn 0.0099 0.9278 -0.3730
vn 0.2552 0.9146 -0.3138
vn 0.4845 0.8292 -0.2787
vn -0.4230 0.8731 -0.2424
vn -0.6220 0.7831 0.0000
vn 0.9243 -0.3421 0.1692
vn 0.8050 -0.3641 -0.4684
vn 0.2837 -0.8932 -0.3488
vn 0.5167 -0.7919 -0.3255
vn 0.8081 0.3740 -0.4551
vn 0.9148 -0.0000 -0.4039
vn 0.9269 0.3347 0.1697
vn 0.9911 -0.0000 0.1328
vn 0.0000 0.4220 0.9066
vn 0.0000 0.0000 1.0000
vn -0.6449 0.3225 0.6929
vn -0.6813 0.0000 0.7320
vn 0.9801 -0.0000 -0.1987
vn 0.7243 0.2505 -0.6423
vn 0.5556 -0.0000 -0.8314
vn 0.6671 0.4028 0.6267
vn 0.7479 -0.0000 0.6638
vn 0.0000 0.0000 -1.0000
vn 0.5443 -0.0000 -0.8389
vn 0.2760 -0.0000 -0.9612
vn -0.5831 0.7957 -0.1641
vn -0.7839 0.5912 0.1897
vn -0.7973 0.5982 0.0806
vn -0.7838 0.6211 0.0000
vn -0.7372 0.6696 -0.0904
vn 0.0343 -0.0000 0.9994
vn 0.0983 -0.0000 0.9952
vn 0.3927 -0.0000 0.9197
vn 1.0000 -0.0000 0.0000
vn 0.3036 -0.0326 0.9522
vn 0.9949 -0.0000 -0.1006
vn -0.2457 0.8780 -0.4108
vn -0.5959 0.7022 0.3898
vn -0.7754 0.6116 0.1572
vn -0.5173 0.7422 0.4261
vn 0.9854 -0.1342 0.1052
vn 0.1216 -0.0909 0.9884
vn 0.6618 -0.5669 -0.4906
vn 0.7514 -0.5023 -0.4279
vn 0.0000 -0.7562 -0.6544
vn 0.0862 -0.3094 0.9470
vn 0.5567 -0.1370 0.8193
vn -0.0950 -0.9168 0.3878
vn 0.0000 -0.9608 -0.2772
vn 0.9041 -0.4010 0.1475
vn 0.8574 -0.4862 -0.1686
vn 0.5935 -0.7684 0.2393
vn 0.6440 -0.7215 -0.2543
vn -0.5031 -0.8268 0.2516
vn -0.6586 -0.4281 0.6188
vn -0.7243 -0.2505 -0.6423
vn 0.4480 0.8655 0.2240
vn -0.4589 0.8583 0.2295
vn 0.0295 0.9138 0.4051
vn 0.6376 -0.3524 0.6850
vn 0.4920 -0.8351 0.2460
vn 0.0328 -0.8923 0.4503
vn -0.0111 -0.9093 -0.4161
vn 0.4654 -0.8440 -0.2667
vn 0.6706 -0.7418 0.0000
vn -0.0099 0.9278 -0.3730
vn -0.2552 0.9146 -0.3138
vn -0.4845 0.8292 -0.2787
vn 0.4230 0.8731 -0.2424
vn 0.6220 0.7831 0.0000
vn -0.9243 -0.3421 0.1692
vn -0.8050 -0.3641 -0.4684
vn -0.2837 -0.8932 -0.3488
vn -0.5167 -0.7919 -0.3255
vn -0.8081 0.3740 -0.4551
vn -0.9148 0.0000 -0.4039
vn -0.9269 0.3347 0.1697
vn -0.9911 0.0000 0.1328
vn 0.6449 0.3225 0.6929
vn 0.6813 -0.0000 0.7320
vn -0.9801 0.0000 -0.1987
vn -0.7243 0.2505 -0.6423
vn -0.5556 0.0000 -0.8314
vn -0.6671 0.4028 0.6267
vn -0.7479 0.0000 0.6638
vn -0.5443 0.0000 -0.8389
vn -0.2760 0.0000 -0.9612
vn 0.5831 0.7957 -0.1641
vn 0.7839 0.5912 0.1897
vn 0.7973 0.5982 0.0806
vn 0.7838 0.6211 0.0000
vn 0.7372 0.6696 -0.0904
vn -0.0343 0.0000 0.9994
vn -0.0983 0.0000 0.9952
vn -0.3927 0.0000 0.9197
vn -1.0000 0.0000 0.0000
vn -0.3036 -0.0326 0.9522
vn -0.9949 0.0000 -0.1006
vn 0.2457 0.8780 -0.4108
vn 0.5959 0.7022 0.3898
vn 0.7754 0.6116 0.1572
vn 0.5173 0.7422 0.4261
vn -0.9854 -0.1342 0.1052
vn -0.1216 -0.0909 0.9884
vn -0.6618 -0.5669 -0.4906
vn -0.7514 -0.5023 -0.4279
vn -0.0862 -0.3094 0.9470
vn -0.5567 -0.1370 0.8193
vn 0.0950 -0.9168 0.3878
vn -0.9041 -0.4010 0.1475
vn -0.8574 -0.4862 -0.1686
vn -0.5935 -0.7684 0.2393
vn -0.6440 -0.7215 -0.2543
usemtl Material
s off
f 24/1/1 15/2/1 3/3/1 8/4/1
f 31/5/2 8/6/2 3/7/2 26/8/2
f 35/9/3 16/10/3 1/11/3 27/12/3
f 62/13/4 65/14/4 37/15/4 41/16/4
f 20/17/5 122/18/5 107/19/5 10/20/5
f 14/21/6 18/22/6 9/23/6 4/24/6
f 18/22/7 20/17/7 10/20/7 9/23/7
f 139/25/8 106/26/8 7/27/8 29/28/8
f 29/28/9 7/27/9 8/6/9 31/5/9
f 124/29/10 22/30/10 7/31/10 106/32/10
f 22/30/11 24/1/11 8/4/11 7/31/11
f 12/33/12 11/34/12 23/35/12 21/36/12
f 21/36/13 23/35/13 24/1/13 22/30/13
f 108/37/14 12/33/14 21/36/14 123/38/14
f 123/38/15 21/36/15 22/30/15 124/29/15
f 6/39/16 5/40/16 19/41/16 17/42/16
f 17/42/4 19/41/4 20/17/4 18/22/4
f 2/43/17 6/39/17 17/42/17 13/44/17
f 13/44/18 17/42/18 18/22/18 14/21/18
f 5/40/19 105/45/19 121/46/19 19/41/19
f 19/41/20 121/46/20 122/18/20 20/17/20
f 26/47/21 3/48/21 15/49/21 33/50/21
f 33/50/22 15/49/22 16/10/22 35/9/22
f 11/34/23 1/51/23 16/52/23 23/35/23
f 23/35/24 16/52/24 15/2/24 24/1/24
f 14/53/25 34/54/25 36/55/25 13/56/25
f 34/54/26 33/50/26 35/9/26 36/55/26
f 4/57/27 25/58/27 34/54/27 14/53/27
f 25/58/28 26/47/28 33/50/28 34/54/28
f 10/59/29 30/60/29 32/61/29 9/62/29
f 30/60/30 29/28/30 31/5/30 32/61/30
f 107/63/31 140/64/31 30/60/31 10/59/31
f 140/64/32 139/25/32 29/28/32 30/60/32
f 198/65/4 62/13/4 41/16/4 160/66/4
f 63/67/33 69/68/33 46/69/33 39/70/33
f 65/14/4 68/71/4 38/72/4 37/15/4
f 69/68/33 72/73/33 42/74/33 46/69/33
f 13/56/34 36/55/34 28/75/34 2/76/34
f 36/55/35 35/9/35 27/12/35 28/75/35
f 9/62/36 32/61/36 25/77/36 4/78/36
f 32/61/37 31/5/37 26/8/37 25/77/37
f 48/79/38 40/80/38 158/81/38 167/82/38
f 46/69/39 42/74/39 43/83/39 47/84/39
f 47/84/40 43/83/40 40/80/40 48/79/40
f 37/85/40 44/86/40 45/87/40 41/88/40
f 44/86/40 47/84/40 48/79/40 45/87/40
f 38/89/39 39/70/39 44/86/39 37/85/39
f 39/70/39 46/69/39 47/84/39 44/86/39
f 41/88/38 45/87/38 159/90/38 160/91/38
f 45/87/38 48/79/38 167/82/38 159/90/38
f 68/92/33 63/67/33 39/70/33 38/89/33
f 49/93/41 50/94/41 77/95/41 90/96/41
f 177/97/42 54/98/42 89/99/42 235/100/42
f 74/101/43 73/102/43 96/103/43 92/104/43
f 73/102/44 53/105/44 88/106/44 96/103/44
f 50/94/45 178/107/45 236/108/45 77/95/45
f 60/109/40 56/110/40 52/111/40 54/98/40
f 59/112/46 55/113/46 49/93/46 53/114/46
f 57/115/47 182/116/47 178/107/47 50/94/47
f 181/117/38 60/109/38 54/98/38 177/97/38
f 55/113/48 57/115/48 50/94/48 49/93/48
f 56/110/39 58/118/39 51/119/39 52/111/39
f 75/120/49 59/121/49 53/105/49 73/102/49
f 71/122/49 1/11/49 59/121/49 75/120/49
f 43/83/39 42/74/39 58/118/39 56/110/39
f 11/34/48 12/33/48 57/115/48 55/113/48
f 158/81/38 40/80/38 60/109/38 181/117/38
f 12/33/50 108/37/50 182/116/50 57/115/50
f 1/51/46 11/34/46 55/113/46 59/112/46
f 40/80/40 43/83/40 56/110/40 60/109/40
f 42/74/33 72/73/33 76/123/33 58/118/33
f 72/73/51 71/122/51 75/120/51 76/123/51
f 58/118/33 76/123/33 74/101/33 51/119/33
f 76/123/51 75/120/51 73/102/51 74/101/51
f 53/114/52 49/93/52 90/96/52 88/124/52
f 54/98/53 52/111/53 91/125/53 89/99/53
f 51/119/54 74/101/54 92/104/54 87/126/54
f 2/76/49 28/75/49 64/127/49 67/128/49
f 67/128/51 64/127/51 63/67/51 68/92/51
f 27/12/49 1/11/49 71/122/49 70/129/49
f 70/129/51 71/122/51 72/73/51 69/68/51
f 6/39/4 2/43/4 67/130/4 66/131/4
f 66/131/4 67/130/4 68/71/4 65/14/4
f 28/75/49 27/12/49 70/129/49 64/127/49
f 64/127/51 70/129/51 69/68/51 63/67/51
f 105/45/4 5/40/4 61/132/4 197/133/4
f 197/133/4 61/132/4 62/13/4 198/65/4
f 52/111/55 51/119/55 87/126/55 91/125/55
f 5/40/4 6/39/4 66/131/4 61/132/4
f 61/132/4 66/131/4 65/14/4 62/13/4
f 96/103/56 88/106/56 79/134/56 95/135/56
f 91/125/39 87/126/39 86/136/39 84/137/39
f 90/96/57 77/95/57 78/138/57 80/139/57
f 83/140/58 81/141/58 82/142/58 84/143/58
f 85/144/59 83/140/59 84/143/59 86/145/59
f 81/141/60 238/146/60 229/147/60 82/142/60
f 235/100/38 89/99/38 82/148/38 229/149/38
f 77/95/61 236/108/61 219/150/61 78/138/61
f 88/124/62 90/96/62 80/139/62 79/151/62
f 89/99/40 91/125/40 84/137/40 82/148/40
f 78/138/63 219/150/63 222/152/63 93/153/63
f 93/153/64 222/152/64 238/146/64 81/141/64
f 79/151/65 80/139/65 94/154/65 95/155/65
f 95/155/66 94/154/66 83/140/66 85/144/66
f 80/139/67 78/138/67 93/153/67 94/154/67
f 94/154/68 93/153/68 81/141/68 83/140/68
f 87/126/33 92/104/33 85/156/33 86/136/33
f 92/104/51 96/103/51 95/135/51 85/156/51
f 132/157/69 112/158/69 103/159/69 119/160/69
f 144/161/70 134/162/70 103/163/70 112/164/70
f 152/165/71 135/166/71 101/167/71 120/168/71
f 148/169/49 139/170/49 106/26/49 124/171/49
f 192/172/4 161/173/4 154/174/4 199/175/4
f 128/176/72 114/177/72 107/19/72 122/18/72
f 118/178/73 104/179/73 113/180/73 126/181/73
f 126/181/74 113/180/74 114/177/74 128/176/74
f 187/182/49 158/183/49 167/184/49 190/185/49
f 139/25/75 142/186/75 111/187/75 106/26/75
f 142/186/9 144/161/9 112/164/9 111/187/9
f 124/29/76 106/32/76 111/188/76 130/189/76
f 130/189/77 111/188/77 112/158/77 132/157/77
f 116/190/78 129/191/78 131/192/78 115/193/78
f 129/191/13 130/189/13 132/157/13 131/192/13
f 108/37/79 123/38/79 129/191/79 116/190/79
f 123/38/80 124/29/80 130/189/80 129/191/80
f 110/194/81 125/195/81 127/196/81 109/197/81
f 125/195/4 126/181/4 128/176/4 127/196/4
f 102/198/82 117/199/82 125/195/82 110/194/82
f 117/199/83 118/178/83 126/181/83 125/195/83
f 109/197/84 127/196/84 121/46/84 105/45/84
f 127/196/85 128/176/85 122/18/85 121/46/85
f 137/200/49 146/201/49 123/202/49 108/37/49
f 146/201/49 148/169/49 124/171/49 123/202/49
f 134/203/86 150/204/86 119/205/86 103/206/86
f 150/204/87 152/165/87 120/168/87 119/205/87
f 115/193/88 131/192/88 120/207/88 101/208/88
f 131/192/89 132/157/89 119/160/89 120/207/89
f 118/209/90 117/210/90 153/211/90 151/212/90
f 151/212/91 153/211/91 152/165/91 150/204/91
f 104/213/92 118/209/92 151/212/92 133/214/92
f 133/214/93 151/212/93 150/204/93 134/203/93
f 121/215/49 122/216/49 149/217/49 147/218/49
f 147/218/49 149/217/49 148/169/49 146/201/49
f 105/219/49 121/215/49 147/218/49 138/220/49
f 138/220/49 147/218/49 146/201/49 137/200/49
f 114/221/29 113/222/29 145/223/29 143/224/29
f 143/224/30 145/223/30 144/161/30 142/186/30
f 107/63/94 114/221/94 143/224/94 140/64/94
f 140/64/95 143/224/95 142/186/95 139/25/95
f 198/65/4 160/66/4 161/173/4 192/172/4
f 193/225/96 156/226/96 166/227/96 203/228/96
f 195/229/49 159/230/49 160/91/49 198/231/49
f 199/175/4 154/174/4 155/232/4 202/233/4
f 203/228/96 166/227/96 162/234/96 206/235/96
f 122/216/49 107/19/49 140/236/49 149/217/49
f 149/217/49 140/236/49 139/170/49 148/169/49
f 117/210/97 102/237/97 136/238/97 153/211/97
f 153/211/98 136/238/98 135/166/98 152/165/98
f 113/222/99 104/239/99 133/240/99 145/223/99
f 145/223/100 133/240/100 134/162/100 144/161/100
f 169/241/38 167/82/38 158/81/38 157/242/38
f 166/227/101 168/243/101 163/244/101 162/234/101
f 168/243/102 169/241/102 157/242/102 163/244/102
f 154/245/102 161/246/102 165/247/102 164/248/102
f 164/248/102 165/247/102 169/241/102 168/243/102
f 155/249/101 154/245/101 164/248/101 156/226/101
f 156/226/101 164/248/101 168/243/101 166/227/101
f 161/246/38 160/91/38 159/90/38 165/247/38
f 165/247/38 159/90/38 167/82/38 169/241/38
f 202/250/96 155/249/96 156/226/96 193/225/96
f 190/185/49 167/184/49 159/230/49 195/229/49
f 170/251/49 229/147/49 235/252/49 177/253/49
f 171/254/103 233/255/103 217/256/103 172/257/103
f 177/97/104 235/100/104 232/258/104 176/259/104
f 209/260/49 207/261/49 170/251/49 177/253/49
f 212/262/105 237/263/105 242/264/105 211/265/105
f 211/265/106 242/264/106 231/266/106 175/267/106
f 172/257/107 217/256/107 236/108/107 178/107/107
f 186/268/102 176/259/102 174/269/102 180/270/102
f 185/271/108 175/272/108 171/254/108 179/273/108
f 183/274/109 172/257/109 178/107/109 182/116/109
f 215/275/49 209/260/49 177/253/49 181/276/49
f 181/117/38 177/97/38 176/259/38 186/268/38
f 179/273/110 171/254/110 172/257/110 183/274/110
f 180/270/101 174/269/101 173/277/101 184/278/101
f 213/279/111 211/265/111 175/267/111 185/280/111
f 205/281/111 213/279/111 185/280/111 101/167/111
f 163/244/101 180/270/101 184/278/101 162/234/101
f 115/193/110 179/273/110 183/274/110 116/190/110
f 158/81/38 181/117/38 186/268/38 157/242/38
f 187/182/49 215/275/49 181/276/49 158/183/49
f 116/190/112 183/274/112 182/116/112 108/37/112
f 101/208/108 185/271/108 179/273/108 115/193/108
f 157/242/102 186/268/102 180/270/102 163/244/102
f 108/37/49 182/116/49 216/282/49 188/283/49
f 188/283/49 216/282/49 215/275/49 187/182/49
f 162/234/96 184/278/96 214/284/96 206/235/96
f 206/235/113 214/284/113 213/279/113 205/281/113
f 184/278/96 173/277/96 212/262/96 214/284/96
f 214/284/113 212/262/113 211/265/113 213/279/113
f 182/116/49 178/107/49 210/285/49 216/282/49
f 216/282/49 210/285/49 209/260/49 215/275/49
f 178/107/49 141/286/49 208/287/49 210/285/49
f 210/285/49 208/287/49 207/261/49 209/260/49
f 141/286/49 219/150/49 222/152/49 208/287/49
f 175/272/114 231/288/114 233/255/114 171/254/114
f 208/287/49 222/152/49 238/146/49 207/261/49
f 176/259/115 232/258/115 234/289/115 174/269/115
f 207/261/49 238/146/49 229/147/49 170/251/49
f 173/277/116 230/290/116 237/263/116 212/262/116
f 137/200/49 189/291/49 196/292/49 138/220/49
f 189/291/49 190/185/49 195/229/49 196/292/49
f 102/237/111 201/293/111 194/294/111 136/238/111
f 201/293/113 202/250/113 193/225/113 194/294/113
f 135/166/111 204/295/111 205/281/111 101/167/111
f 204/295/113 203/228/113 206/235/113 205/281/113
f 110/194/4 200/296/4 201/297/4 102/198/4
f 200/296/4 199/175/4 202/233/4 201/297/4
f 138/220/49 196/292/49 197/298/49 105/219/49
f 196/292/49 195/229/49 198/231/49 197/298/49
f 136/238/111 194/294/111 204/295/111 135/166/111
f 194/294/113 193/225/113 203/228/113 204/295/113
f 105/45/4 197/133/4 191/299/4 109/197/4
f 197/133/4 198/65/4 192/172/4 191/299/4
f 178/107/49 236/108/49 219/150/49 141/286/49
f 174/269/117 234/289/117 230/290/117 173/277/117
f 108/37/49 188/283/49 189/291/49 137/200/49
f 188/283/49 187/182/49 190/185/49 189/291/49
f 109/197/4 191/299/4 200/296/4 110/194/4
f 191/299/4 192/172/4 199/175/4 200/296/4
f 242/264/118 241/300/118 220/301/118 231/266/118
f 234/289/101 226/302/101 228/303/101 230/290/101
f 233/255/119 221/304/119 218/305/119 217/256/119
f 225/306/120 226/307/120 224/308/120 223/309/120
f 227/310/121 228/311/121 226/307/121 225/306/121
f 223/309/60 224/308/60 229/147/60 238/146/60
f 235/100/38 229/149/38 224/312/38 232/258/38
f 217/256/122 218/305/122 219/150/122 236/108/122
f 231/288/123 220/313/123 221/304/123 233/255/123
f 232/258/102 224/312/102 226/302/102 234/289/102
f 218/305/124 239/314/124 222/152/124 219/150/124
f 239/314/64 223/309/64 238/146/64 222/152/64
f 220/313/125 241/315/125 240/316/125 221/304/125
f 241/315/126 227/310/126 225/306/126 240/316/126
f 221/304/127 240/316/127 239/314/127 218/305/127
f 240/316/128 225/306/128 223/309/128 239/314/128
f 230/290/96 228/303/96 227/317/96 237/263/96
f 237/263/113 227/317/113 241/300/113 242/264/113
l 100 98
l 99 100
l 246 244
l 245 246
